<?xml version="1.0" encoding="UTF-8" ?>
<svg xmlns="http://www.w3.org/2000/svg" version="1.1" height="20" width="50">
  <line x1="1" y1="1" x2="1" y2="19" style="stroke:whitesmoke;stroke-width:2" />
  <line x1="1" y1="1" x2="49" y2="1" style="stroke:whitesmoke;stroke-width:2" />
</svg>